<?xml version="1.0" encoding="iso-8859-1"?>
<!-- Generator: Adobe Illustrator 19.0.0, SVG Export Plug-In . SVG Version: 6.00 Build 0)  -->
<svg xmlns="http://www.w3.org/2000/svg" xmlns:xlink="http://www.w3.org/1999/xlink" version="1.1" id="Layer_1" x="0px" y="0px" viewBox="0 0 407.437 407.437" style="enable-background:new 0 0 407.437 407.437;" xml:space="preserve" width="512px" height="512px">
<g>
	<polygon points="203.718,322.929 21.179,140.984 0,162.232 203.718,365.287 407.437,162.232 386.258,140.984  " fill="#1fa363"/>
	<polygon points="407.437,63.398 386.258,42.15 203.718,224.095 21.179,42.15 0,63.398 203.718,266.453  " fill="#1fa363"/>
</g>
<g>
</g>
<g>
</g>
<g>
</g>
<g>
</g>
<g>
</g>
<g>
</g>
<g>
</g>
<g>
</g>
<g>
</g>
<g>
</g>
<g>
</g>
<g>
</g>
<g>
</g>
<g>
</g>
<g>
</g>
</svg>
