<?xml version="1.0" encoding="UTF-8"?>
<svg width="339px" height="46px" viewBox="0 0 339 46" version="1.1" xmlns="http://www.w3.org/2000/svg" xmlns:xlink="http://www.w3.org/1999/xlink">
    <!-- Generator: Sketch 47.1 (45422) - http://www.bohemiancoding.com/sketch -->
    <title>logo</title>
    <desc>Created with Sketch.</desc>
    <defs></defs>
    <g id="Main-pages" stroke="none" stroke-width="1" fill="none" fill-rule="evenodd">
        <g id="icoMoneyMaker-Main-1440" transform="translate(-265.000000, -29.000000)">
            <g id="logo" transform="translate(260.000000, 24.000000)">
                <path d="M114.212098,39.388 L114.212098,15.412 C114.212098,15.003998 114.416096,14.8 114.824098,14.8 L118.676098,14.8 C118.988099,14.8 119.228097,14.9319987 119.396098,15.196 L124.616098,23.62 C124.664098,23.6920004 124.718097,23.728 124.778098,23.728 C124.838098,23.728 124.880098,23.6920004 124.904098,23.62 L130.196098,15.196 C130.364099,14.9319987 130.604096,14.8 130.916098,14.8 L134.768098,14.8 C135.1761,14.8 135.380098,15.003998 135.380098,15.412 L135.380098,39.388 C135.380098,39.796002 135.1761,40 134.768098,40 L130.916098,40 C130.508096,40 130.304098,39.796002 130.304098,39.388 L130.304098,23.8 C130.304098,23.7039995 130.274098,23.6440001 130.214098,23.62 C130.154097,23.5959999 130.100098,23.6319995 130.052098,23.728 L126.416098,29.668 C126.248097,29.9320013 126.008099,30.064 125.696098,30.064 L123.860098,30.064 C123.548096,30.064 123.308099,29.9320013 123.140098,29.668 L119.540098,23.728 C119.492097,23.6319995 119.438098,23.5959999 119.378098,23.62 C119.318097,23.6440001 119.288098,23.7039995 119.288098,23.8 L119.288098,39.388 C119.288098,39.796002 119.0841,40 118.676098,40 L114.824098,40 C114.416096,40 114.212098,39.796002 114.212098,39.388 Z M143.875464,39.244 C142.447456,38.4759962 141.337468,37.4020069 140.545464,36.022 C139.75346,34.6419931 139.357464,33.052009 139.357464,31.252 L139.357464,23.548 C139.357464,21.7719911 139.75346,20.2000068 140.545464,18.832 C141.337468,17.4639932 142.447456,16.4020038 143.875464,15.646 C145.303471,14.8899962 146.953454,14.512 148.825464,14.512 C150.721473,14.512 152.383456,14.8899962 153.811464,15.646 C155.239471,16.4020038 156.34946,17.4639932 157.141464,18.832 C157.933468,20.2000068 158.329464,21.7719911 158.329464,23.548 L158.329464,31.252 C158.329464,33.052009 157.933468,34.647993 157.141464,36.04 C156.34946,37.432007 155.239471,38.5059962 153.811464,39.262 C152.383456,40.0180038 150.721473,40.396 148.825464,40.396 C146.953454,40.396 145.303471,40.0120038 143.875464,39.244 Z M152.029464,34.78 C152.845468,33.9399958 153.253464,32.824007 153.253464,31.432 L153.253464,23.512 C153.253464,22.119993 152.851468,20.9980043 152.047464,20.146 C151.24346,19.2939957 150.16947,18.868 148.825464,18.868 C147.505457,18.868 146.443468,19.2939957 145.639464,20.146 C144.83546,20.9980043 144.433464,22.119993 144.433464,23.512 L144.433464,31.432 C144.433464,32.824007 144.83546,33.9399958 145.639464,34.78 C146.443468,35.6200042 147.505457,36.04 148.825464,36.04 C150.14547,36.04 151.213459,35.6200042 152.029464,34.78 Z M162.306829,39.388 L162.306829,15.412 C162.306829,15.003998 162.510827,14.8 162.918829,14.8 L166.626829,14.8 C166.938831,14.8 167.178829,14.9319987 167.346829,15.196 L176.346829,30.172 C176.39483,30.2680005 176.448829,30.3040001 176.508829,30.28 C176.56883,30.2559999 176.598829,30.1960005 176.598829,30.1 L176.598829,15.412 C176.598829,15.003998 176.802827,14.8 177.210829,14.8 L180.990829,14.8 C181.398832,14.8 181.602829,15.003998 181.602829,15.412 L181.602829,39.388 C181.602829,39.796002 181.398832,40 180.990829,40 L177.318829,40 C177.030828,40 176.79083,39.8560014 176.598829,39.568 L167.562829,24.448 C167.514829,24.3519995 167.46083,24.3159999 167.400829,24.34 C167.340829,24.3640001 167.310829,24.4239995 167.310829,24.52 L167.346829,39.388 C167.346829,39.796002 167.142832,40 166.734829,40 L162.918829,40 C162.510827,40 162.306829,39.796002 162.306829,39.388 Z M202.752195,19.156 L191.160195,19.156 C191.016195,19.156 190.944195,19.2279993 190.944195,19.372 L190.944195,24.88 C190.944195,25.0240007 191.016195,25.096 191.160195,25.096 L198.684195,25.096 C199.092197,25.096 199.296195,25.299998 199.296195,25.708 L199.296195,28.84 C199.296195,29.248002 199.092197,29.452 198.684195,29.452 L191.160195,29.452 C191.016195,29.452 190.944195,29.5239993 190.944195,29.668 L190.944195,35.428 C190.944195,35.5720007 191.016195,35.644 191.160195,35.644 L202.752195,35.644 C203.160197,35.644 203.364195,35.847998 203.364195,36.256 L203.364195,39.388 C203.364195,39.796002 203.160197,40 202.752195,40 L186.480195,40 C186.072193,40 185.868195,39.796002 185.868195,39.388 L185.868195,15.412 C185.868195,15.003998 186.072193,14.8 186.480195,14.8 L202.752195,14.8 C203.160197,14.8 203.364195,15.003998 203.364195,15.412 L203.364195,18.544 C203.364195,18.952002 203.160197,19.156 202.752195,19.156 Z M213.353561,39.352 L213.353561,30.46 L213.281561,30.172 L206.009561,15.52 C205.937561,15.3999994 205.901561,15.2920005 205.901561,15.196 C205.901561,15.0759994 205.949561,14.9800004 206.045561,14.908 C206.141562,14.8359996 206.27356,14.8 206.441561,14.8 L210.617561,14.8 C210.953563,14.8 211.193561,14.9559984 211.337561,15.268 L215.729561,24.628 C215.777561,24.7000004 215.831561,24.736 215.891561,24.736 C215.951562,24.736 215.993561,24.7000004 216.017561,24.628 L220.409561,15.268 C220.577562,14.9559984 220.81756,14.8 221.129561,14.8 L225.341561,14.8 C225.701563,14.8 225.881561,14.9439986 225.881561,15.232 C225.881561,15.3520006 225.857561,15.4479996 225.809561,15.52 L218.465561,30.172 L218.393561,30.46 L218.393561,39.352 C218.393561,39.760002 218.189563,39.964 217.781561,39.964 L213.965561,39.964 C213.557559,39.964 213.353561,39.760002 213.353561,39.352 Z" id="Combined-Shape" fill="#FFFFFF"></path>
                <path d="M231.318927,39.388 L231.318927,15.412 C231.318927,15.003998 231.522925,14.8 231.930927,14.8 L235.782927,14.8 C236.094929,14.8 236.334926,14.9319987 236.502927,15.196 L241.722927,23.62 C241.770927,23.6920004 241.824927,23.728 241.884927,23.728 C241.944927,23.728 241.986927,23.6920004 242.010927,23.62 L247.302927,15.196 C247.470928,14.9319987 247.710926,14.8 248.022927,14.8 L251.874927,14.8 C252.282929,14.8 252.486927,15.003998 252.486927,15.412 L252.486927,39.388 C252.486927,39.796002 252.282929,40 251.874927,40 L248.022927,40 C247.614925,40 247.410927,39.796002 247.410927,39.388 L247.410927,23.8 C247.410927,23.7039995 247.380927,23.6440001 247.320927,23.62 C247.260927,23.5959999 247.206927,23.6319995 247.158927,23.728 L243.522927,29.668 C243.354926,29.9320013 243.114929,30.064 242.802927,30.064 L240.966927,30.064 C240.654926,30.064 240.414928,29.9320013 240.246927,29.668 L236.646927,23.728 C236.598927,23.6319995 236.544927,23.5959999 236.484927,23.62 C236.424927,23.6440001 236.394927,23.7039995 236.394927,23.8 L236.394927,39.388 C236.394927,39.796002 236.190929,40 235.782927,40 L231.930927,40 C231.522925,40 231.318927,39.796002 231.318927,39.388 Z M272.484293,39.496 L271.476293,36.148 C271.452293,36.0279994 271.380294,35.968 271.260293,35.968 L262.440293,35.968 C262.320292,35.968 262.248293,36.0279994 262.224293,36.148 L261.216293,39.496 C261.096292,39.8320017 260.868295,40 260.532293,40 L256.356293,40 C256.140292,40 255.984294,39.9340007 255.888293,39.802 C255.792293,39.6699993 255.780293,39.508001 255.852293,39.316 L263.520293,15.304 C263.640294,14.9679983 263.868291,14.8 264.204293,14.8 L269.496293,14.8 C269.832295,14.8 270.060292,14.9679983 270.180293,15.304 L277.848293,39.316 C277.872293,39.3640002 277.884293,39.4359995 277.884293,39.532 C277.884293,39.6760007 277.836294,39.7899996 277.740293,39.874 C277.644293,39.9580004 277.512294,40 277.344293,40 L273.168293,40 C272.832291,40 272.604294,39.8320017 272.484293,39.496 Z M263.664293,32.044 L270.036293,32.044 C270.180294,32.044 270.240293,31.9600008 270.216293,31.792 L266.976293,20.812 C266.952293,20.7159995 266.910293,20.668 266.850293,20.668 C266.790293,20.668 266.736293,20.7159995 266.688293,20.812 L263.484293,31.792 C263.460293,31.9600008 263.520292,32.044 263.664293,32.044 Z M281.213659,39.388 L281.213659,15.412 C281.213659,15.003998 281.417657,14.8 281.825659,14.8 L285.677659,14.8 C286.085661,14.8 286.289659,15.003998 286.289659,15.412 L286.289659,25.24 C286.289659,25.3360005 286.319659,25.3959999 286.379659,25.42 C286.439659,25.4440001 286.493659,25.4200004 286.541659,25.348 L294.749659,15.16 C294.91766,14.9199988 295.169657,14.8 295.505659,14.8 L299.861659,14.8 C300.02966,14.8 300.161658,14.8299997 300.257659,14.89 C300.353659,14.9500003 300.401659,15.0399994 300.401659,15.16 C300.401659,15.2560005 300.34166,15.3879992 300.221659,15.556 L292.373659,25.564 C292.301659,25.6360004 292.301659,25.7319994 292.373659,25.852 L300.689659,39.28 C300.761659,39.3760005 300.797659,39.4839994 300.797659,39.604 C300.797659,39.8680013 300.629661,40 300.293659,40 L295.937659,40 C295.625657,40 295.38566,39.8680013 295.217659,39.604 L288.917659,29.38 C288.893659,29.3079996 288.845659,29.272 288.773659,29.272 C288.701659,29.272 288.641659,29.3079996 288.593659,29.38 L286.397659,32.188 C286.325659,32.2840005 286.289659,32.3679996 286.289659,32.44 L286.289659,39.388 C286.289659,39.796002 286.085661,40 285.677659,40 L281.825659,40 C281.417657,40 281.213659,39.796002 281.213659,39.388 Z M320.723025,19.156 L309.131025,19.156 C308.987024,19.156 308.915025,19.2279993 308.915025,19.372 L308.915025,24.88 C308.915025,25.0240007 308.987024,25.096 309.131025,25.096 L316.655025,25.096 C317.063027,25.096 317.267025,25.299998 317.267025,25.708 L317.267025,28.84 C317.267025,29.248002 317.063027,29.452 316.655025,29.452 L309.131025,29.452 C308.987024,29.452 308.915025,29.5239993 308.915025,29.668 L308.915025,35.428 C308.915025,35.5720007 308.987024,35.644 309.131025,35.644 L320.723025,35.644 C321.131027,35.644 321.335025,35.847998 321.335025,36.256 L321.335025,39.388 C321.335025,39.796002 321.131027,40 320.723025,40 L304.451025,40 C304.043023,40 303.839025,39.796002 303.839025,39.388 L303.839025,15.412 C303.839025,15.003998 304.043023,14.8 304.451025,14.8 L320.723025,14.8 C321.131027,14.8 321.335025,15.003998 321.335025,15.412 L321.335025,18.544 C321.335025,18.952002 321.131027,19.156 320.723025,19.156 Z M338.200391,39.532 L333.772391,29.74 C333.72439,29.6199994 333.640391,29.56 333.520391,29.56 L330.244391,29.56 C330.10039,29.56 330.028391,29.6319993 330.028391,29.776 L330.028391,39.388 C330.028391,39.796002 329.824393,40 329.416391,40 L325.564391,40 C325.156389,40 324.952391,39.796002 324.952391,39.388 L324.952391,15.376 C324.952391,14.967998 325.156389,14.764 325.564391,14.764 L335.680391,14.764 C337.216398,14.764 338.566385,15.0819968 339.730391,15.718 C340.894397,16.3540032 341.794388,17.2479942 342.430391,18.4 C343.066394,19.5520058 343.384391,20.8719926 343.384391,22.36 C343.384391,23.9920082 342.976395,25.3959941 342.160391,26.572 C341.344387,27.7480059 340.216398,28.5759976 338.776391,29.056 C338.70439,29.0800001 338.656391,29.1219997 338.632391,29.182 C338.608391,29.2420003 338.62039,29.2959998 338.668391,29.344 L343.420391,39.28 C343.492391,39.3760005 343.528391,39.4839994 343.528391,39.604 C343.528391,39.7240006 343.480391,39.8199996 343.384391,39.892 C343.28839,39.9640004 343.156392,40 342.988391,40 L338.920391,40 C338.608389,40 338.368392,39.8440016 338.200391,39.532 Z M330.028391,19.372 L330.028391,25.42 C330.028391,25.5640007 330.10039,25.636 330.244391,25.636 L334.924391,25.636 C335.932396,25.636 336.754388,25.3420029 337.390391,24.754 C338.026394,24.1659971 338.344391,23.3920048 338.344391,22.432 C338.344391,21.4719952 338.026394,20.6860031 337.390391,20.074 C336.754388,19.4619969 335.932396,19.156 334.924391,19.156 L330.244391,19.156 C330.10039,19.156 330.028391,19.2279993 330.028391,19.372 Z" id="icomoneymaker" fill="#FFFFFF"></path>
                <path d="M57.196,30.8174026 L57.196,39.388 C57.196,39.796002 57.399998,40 57.808,40 L61.66,40 C62.068002,40 62.272,39.796002 62.272,39.388 L62.272,30.2802697 L57.196,30.8174026 Z M66.2493659,29.8593923 L66.2493659,31.54 C66.2493659,33.2680086 66.6333621,34.7919934 67.4013659,36.112 C68.1693697,37.4320066 69.2613588,38.4579963 70.6773659,39.19 C72.093373,39.9220037 73.7373565,40.288 75.6093659,40.288 C77.4573751,40.288 79.0833589,39.9400035 80.4873659,39.244 C81.8913729,38.5479965 82.983362,37.5640064 83.7633659,36.292 C84.5433698,35.0199936 84.9333659,33.5560083 84.9333659,31.9 L84.9333659,31.72 C84.9333659,31.6479996 84.7293679,31.5880002 84.3213659,31.54 L80.4693659,31.36 C80.2773649,31.3359999 80.1273664,31.3659996 80.0193659,31.45 C79.9113654,31.5340004 79.8573659,31.6359994 79.8573659,31.756 C79.8573659,33.0040062 79.4673698,34.0119962 78.6873659,34.78 C77.907362,35.5480038 76.8813723,35.932 75.6093659,35.932 C74.3133594,35.932 73.2753698,35.5480038 72.4953659,34.78 C71.715362,34.0119962 71.3253659,33.0040062 71.3253659,31.756 L71.3253659,29.3222594 L66.2493659,29.8593923 Z M88.2267318,27.5337883 L88.2267318,31.252 C88.2267318,33.052009 88.6227278,34.6419931 89.4147318,36.022 C90.2067357,37.4020069 91.3167246,38.4759962 92.7447318,39.244 C94.1727389,40.0120038 95.8227224,40.396 97.6947318,40.396 C99.5907413,40.396 101.252725,40.0180038 102.680732,39.262 C104.108739,38.5059962 105.218728,37.432007 106.010732,36.04 C106.802736,34.647993 107.198732,33.052009 107.198732,31.252 L107.198732,25.5262065 L102.122732,26.0633394 L102.122732,31.432 C102.122732,32.824007 101.714736,33.9399958 100.898732,34.78 C100.082728,35.6200042 99.0147384,36.04 97.6947318,36.04 C96.3747252,36.04 95.3127358,35.6200042 94.5087318,34.78 C93.7047278,33.9399958 93.3027318,32.824007 93.3027318,31.432 L93.3027318,26.9966554 L88.2267318,27.5337883 Z" id="Combined-Shape" fill="#32C4FF"></path>
                <path d="M59.196,30.6057663 L59.196,15.412 C59.196,15.003998 59.399998,14.8 59.808,14.8 L63.66,14.8 C64.068002,14.8 64.272,15.003998 64.272,15.412 L64.272,30.0686334 L59.196,30.6057663 Z M68.2493659,29.647756 L68.2493659,23.224 C68.2493659,21.4959914 68.6333621,19.9720066 69.4013659,18.652 C70.1693697,17.3319934 71.2613588,16.3120036 72.6773659,15.592 C74.093373,14.8719964 75.7373565,14.512 77.6093659,14.512 C79.4573751,14.512 81.0833589,14.8539966 82.4873659,15.538 C83.8913729,16.2220034 84.983362,17.1939937 85.7633659,18.454 C86.5433698,19.7140063 86.9333659,21.1719917 86.9333659,22.828 C86.9333659,23.0440011 86.7413678,23.1759998 86.3573659,23.224 L82.5053659,23.476 L82.3613659,23.476 C82.0253642,23.476 81.8573659,23.4160006 81.8573659,23.296 L81.8573659,23.08 C81.8573659,21.8079936 81.4673698,20.7880038 80.6873659,20.02 C79.907362,19.2519962 78.8813723,18.868 77.6093659,18.868 C76.3133594,18.868 75.2753698,19.2519962 74.4953659,20.02 C73.715362,20.7880038 73.3253659,21.8079936 73.3253659,23.08 L73.3253659,29.1106231 L68.2493659,29.647756 Z M90.2267318,27.322152 L90.2267318,23.548 C90.2267318,21.7719911 90.6227278,20.2000068 91.4147318,18.832 C92.2067357,17.4639932 93.3167246,16.4020038 94.7447318,15.646 C96.1727389,14.8899962 97.8227224,14.512 99.6947318,14.512 C101.590741,14.512 103.252725,14.8899962 104.680732,15.646 C106.108739,16.4020038 107.218728,17.4639932 108.010732,18.832 C108.802736,20.2000068 109.198732,21.7719911 109.198732,23.548 L109.198732,25.3145702 L104.122732,25.8517031 L104.122732,23.512 C104.122732,22.119993 103.720736,20.9980043 102.916732,20.146 C102.112728,19.2939957 101.038739,18.868 99.6947318,18.868 C98.3747252,18.868 97.3127358,19.2939957 96.5087318,20.146 C95.7047278,20.9980043 95.3027318,22.119993 95.3027318,23.512 L95.3027318,26.7850191 L90.2267318,27.322152 Z" id="Combined-Shape" fill="#51D460"></path>
                <g id="Page-1" transform="translate(28.000000, 28.500000) rotate(106.000000) translate(-28.000000, -28.500000) translate(5.000000, 6.000000)">
                    <path d="M19.8241341,0 C15.3728866,0.509444533 11.3086007,2.30030415 8,5 L22,5 L19.8241341,0 Z" id="Fill-4" fill="#51D460"></path>
                    <path d="M25.7324743,10 L4.58974043,10 C3.523306,11.5424334 2.65044084,13.2199705 2,15 L28,15 L25.7324743,10 Z" id="Fill-7" fill="#51D460"></path>
                    <path d="M28.794152,20 L0.143859649,20 C0.0514619883,20.8265393 0,21.665502 0,22.5164997 C0,23.3566271 0.0499025341,24.1839429 0.13957115,25 L31,25 L28.794152,20 Z" id="Fill-9" fill="#51D460"></path>
                    <path d="M34.7377566,31 L2,31 C2.64572695,32.7795031 3.51296023,34.4572981 4.57371169,36 L37,36 L34.7377566,31 Z" id="Fill-11" fill="#51D460"></path>
                    <path d="M8,40 C11.6584335,42.9072205 16.2450669,44.7391304 21.259093,45 L23.740907,45 C28.7549331,44.7391304 33.3415665,42.9072205 37,40 L8,40 Z" id="Fill-13" fill="#51D460"></path>
                    <path d="M23.2895174,7 L40,7 C38.04432,4.94782204 35.6961281,3.246603 33.0715594,2 L21,2 L23.2895174,7 Z" id="Fill-15" fill="#32C4FF"></path>
                    <path d="M28.1820415,18 L45,18 C44.5884323,16.2448171 43.973588,14.5699977 43.1805392,13 L26,13 L28.1820415,18 Z" id="Fill-17" fill="#32C4FF"></path>
                    <path d="M32.291442,28 L45.4565014,28 C45.808844,26.4490255 46,24.8398168 46,23.1875146 C46,23.1242332 45.9955451,23.0625049 45.9951401,23 L30,23 L32.291442,28 Z" id="Fill-19" fill="#32C4FF"></path>
                    <path d="M37.2727963,38 L40.5646954,38 C41.926445,36.4953416 43.08815,34.8179348 44,33 L35,33 L37.2727963,38 Z" id="Fill-22" fill="#32C4FF"></path>
                </g>
            </g>
        </g>
    </g>
</svg>